<svg xmlns="http://www.w3.org/2000/svg" viewBox="4376 2923 481.842 480">
  <defs>
    <style>
      .cls-1 {
        fill: #b21328;
      }
    </style>
  </defs>
  <g id="farmacia" transform="translate(4376 2922.079)">
    <g id="Group_61" data-name="Group 61">
      <g id="Group_60" data-name="Group 60">
        <path id="Path_175" data-name="Path 175" class="cls-1" d="M477.841,294.569h0l-92.92-53.648,92.92-53.648a8,8,0,0,0,2.928-10.928l-64-110.848a8,8,0,0,0-10.928-2.928l-92.92,53.648V8.921a8,8,0,0,0-8-8h-128a8,8,0,0,0-8,8v107.3L76,62.569A8,8,0,0,0,65.073,65.5l-64,110.848A8,8,0,0,0,4,187.273l92.92,53.648L4,294.569A8,8,0,0,0,1.073,305.5l64,110.848A8,8,0,0,0,76,419.273l92.92-53.648v107.3a8,8,0,0,0,8,8h128a8,8,0,0,0,8-8v-107.3l92.92,53.648a8,8,0,0,0,10.928-2.928l64-110.848A8,8,0,0,0,477.841,294.569ZM406.913,401.417l-97.992-56.576a8,8,0,0,0-12,6.928V464.921h-112V351.769a8,8,0,0,0-12-6.928L74.929,401.417l-56-96.992,97.992-56.576a8,8,0,0,0,0-13.856L18.929,177.417l56-96.992L172.921,137a8,8,0,0,0,12-6.928V16.921h112V130.073a8,8,0,0,0,12,6.928l97.992-56.576,56,96.992-97.992,56.576a8,8,0,0,0,0,13.856l97.992,56.576Z"/>
      </g>
    </g>
    <g id="Group_63" data-name="Group 63">
      <g id="Group_62" data-name="Group 62">
        <path id="Path_176" data-name="Path 176" class="cls-1" d="M272.921,176.921h-24v-9.472a24,24,0,1,0-16,0v9.472h-24a8,8,0,0,0,0,16h24V223.9l-22.32,6.088a24.065,24.065,0,0,0-17.68,23.16V258.6a24,24,0,0,0,21.352,23.848l18.648,2.072v31.512l-6.592,1.88a24.233,24.233,0,0,0-17.408,23.48,23.7,23.7,0,0,0,15.816,22.536l8.184,3.48v17.512a8,8,0,0,0,16,0v-10.7l4.872,2.064a7.859,7.859,0,0,0,3.128.64,8,8,0,0,0,3.128-15.36l-11.128-4.72v-28.72l14.592-4.168a24.112,24.112,0,0,0,17.408-23.1v-5.6A24,24,0,0,0,259.569,271.4l-10.648-1.192V236.121l30.32-8.264a24.063,24.063,0,0,0,17.68-23.16v-3.776A24,24,0,0,0,272.921,176.921Zm-40,173.128-2.528-1.072a8.129,8.129,0,0,1-5.472-8,8,8,0,0,1,5.808-7.7l2.192-.608Zm0-81.616-16.88-1.912a8,8,0,0,1-7.12-7.92v-5.456a8,8,0,0,1,5.9-7.72l18.1-4.936Zm24.88,18.888a8,8,0,0,1,7.12,7.952v5.6a8,8,0,0,1-5.808,7.7l-10.192,2.888V286.305Zm-16.88-134.4a8,8,0,1,1,8-8A8,8,0,0,1,240.921,152.921Zm40,51.776a8,8,0,0,1-5.9,7.72l-26.1,7.12V192.921h24a8,8,0,0,1,8,8Z"/>
      </g>
    </g>
  </g>
</svg>
